<svg width="48" height="47" viewBox="0 0 48 47" fill="none" xmlns="http://www.w3.org/2000/svg">
<path d="M24 44.936C36.1326 44.936 46.05 35.2696 46.4552 23.2339H1.5448C1.95004 35.2696 11.8675 44.936 24 44.936ZM12.4872 36.1786C12.9106 36.1786 13.2535 36.5215 13.2535 36.9445C13.2535 37.3675 12.9106 37.7105 12.4876 37.7105C12.0644 37.7105 11.7212 37.3673 11.7212 36.9445C11.7212 36.5217 12.0644 36.1786 12.4872 36.1786ZM9.42334 33.1147C9.84676 33.1147 10.1897 33.4577 10.1897 33.8807C10.1897 34.3037 9.84676 34.6467 9.42375 34.6467C9.00053 34.6467 8.65738 34.3035 8.65738 33.8807C8.65738 33.4579 9.00053 33.1147 9.42334 33.1147Z" fill="#FECDC2"/>
<path d="M44.803 21.702C44.6221 21.1934 44.265 20.7539 43.784 20.4763C43.5776 20.3573 43.4384 20.1491 43.4074 19.9128C43.3763 19.6766 43.4569 19.4394 43.6254 19.271C44.2058 18.691 44.4348 17.8397 44.2229 17.0492C44.0111 16.2588 43.3871 15.6359 42.5944 15.4238C42.3643 15.3621 42.1759 15.1969 42.0848 14.9769C41.9936 14.7569 42.0102 14.5069 42.1293 14.3007C42.5399 13.5902 42.5407 12.7085 42.1315 11.9998C41.7225 11.2913 40.959 10.8513 40.1387 10.8513C39.8994 10.8513 39.6748 10.7406 39.5299 10.5517C39.3849 10.3626 39.336 10.1169 39.3978 9.8868C39.6105 9.09419 39.383 8.24234 38.8044 7.66379C38.2256 7.08503 37.3739 6.85739 36.5812 7.07022C36.3513 7.13191 36.1054 7.08309 35.9165 6.93807C35.7276 6.79305 35.6168 6.56837 35.6169 6.3301C35.6171 5.50961 35.177 4.74559 34.4683 4.33647C33.7596 3.92724 32.8779 3.92816 32.1675 4.33862C31.9613 4.4577 31.7114 4.47414 31.4911 4.38304C31.271 4.29184 31.1059 4.10362 31.0443 3.87342C30.8322 3.08081 30.2093 2.45681 29.4188 2.2449C28.6285 2.03308 27.777 2.26216 27.1969 2.84265C27.0286 3.01106 26.7912 3.09164 26.5552 3.06059C26.319 3.02944 26.1107 2.89024 25.9916 2.68394C25.5815 1.97324 24.8185 1.53174 24 1.53174C23.1816 1.53174 22.4186 1.97324 22.0085 2.68394C21.8895 2.89034 21.6812 3.02954 21.445 3.06059C21.209 3.09164 20.9716 3.01126 20.8032 2.84265C20.2231 2.26205 19.3716 2.03329 18.5812 2.2449C17.7908 2.45681 17.1679 3.08091 16.9558 3.87342C16.8942 4.10362 16.7291 4.29194 16.509 4.38304C16.2888 4.47434 16.0389 4.4578 15.8326 4.33862C15.1221 3.92806 14.2406 3.92735 13.5317 4.33647C12.8231 4.74559 12.3829 5.50951 12.3832 6.3301C12.3833 6.56837 12.2725 6.79305 12.0836 6.93807C11.8945 7.08289 11.6488 7.1317 11.4188 7.07022C10.6264 6.8577 9.77437 7.08503 9.19582 7.66369C8.61706 8.24234 8.38972 9.09419 8.60235 9.8868C8.66404 10.1169 8.61522 10.3626 8.4703 10.5517C8.32538 10.7406 8.1007 10.8513 7.86264 10.8513C7.04123 10.8513 6.27772 11.2914 5.8687 11.9998C5.45948 12.7085 5.46029 13.5902 5.87085 14.3007C5.99003 14.507 6.00647 14.7569 5.91537 14.9769C5.82417 15.1969 5.63585 15.3621 5.40576 15.4238C4.61304 15.6359 3.98904 16.2588 3.77723 17.0492C3.56542 17.8397 3.79439 18.691 4.37478 19.271C4.54329 19.4394 4.62387 19.6767 4.59282 19.9128C4.56167 20.149 4.42247 20.3573 4.21617 20.4763C3.73515 20.7539 3.37811 21.1934 3.19714 21.702H44.803ZM34.1383 13.9913C34.5617 13.9913 34.9046 14.3343 34.9046 14.7573C34.9046 15.1803 34.5617 15.5232 34.1387 15.5232C33.7154 15.5232 33.3723 15.1801 33.3723 14.7573C33.3723 14.3345 33.7154 13.9913 34.1383 13.9913ZM13.7127 10.9275C14.1361 10.9275 14.4791 11.2704 14.4791 11.6934C14.4791 12.1165 14.1361 12.4594 13.7131 12.4594C13.2899 12.4594 12.9468 12.1162 12.9468 11.6934C12.9468 11.2706 13.2899 10.9275 13.7127 10.9275ZM13.7127 17.0551C14.1361 17.0551 14.4791 17.3981 14.4791 17.8211C14.4791 18.2441 14.1361 18.5871 13.7131 18.5871C13.2899 18.5871 12.9468 18.2439 12.9468 17.8211C12.9468 17.3983 13.2899 17.0551 13.7127 17.0551ZM10.6489 13.9913C11.0723 13.9913 11.4153 14.3343 11.4153 14.7573C11.4153 15.1803 11.0723 15.5232 10.6493 15.5232C10.2261 15.5232 9.88293 15.1801 9.88293 14.7573C9.88293 14.3345 10.2261 13.9913 10.6489 13.9913Z" fill="white"/>
<path d="M48 22.4681C48 22.045 47.6571 21.7021 47.234 21.7021H46.3895C46.2295 20.9245 45.8306 20.2126 45.2515 19.6702C45.805 18.7802 45.9792 17.6854 45.7025 16.6528C45.4259 15.6203 44.7276 14.7594 43.8033 14.2653C44.1076 13.2622 43.9926 12.1598 43.458 11.2339C42.9234 10.3081 42.0263 9.65719 41.0055 9.41923C41.0398 8.37161 40.6433 7.33644 39.8874 6.5807C39.1314 5.82465 38.0968 5.42635 37.0487 5.4625C36.8108 4.44163 36.1599 3.54454 35.234 3.01001C34.3083 2.47547 33.2058 2.36068 32.2028 2.66461C31.7087 1.74026 30.8479 1.04211 29.8151 0.765345C28.7825 0.488681 27.6879 0.662808 26.7979 1.21634C26.0814 0.451608 25.0691 0 24 0C22.9309 0 21.9186 0.451609 21.2021 1.21654C20.3121 0.663115 19.2173 0.488783 18.1847 0.765549C17.1521 1.04231 16.2912 1.74046 15.7972 2.66482C14.7943 2.36058 13.6917 2.47557 12.766 3.01021C11.8401 3.54465 11.1892 4.44184 10.9513 5.46271C9.90281 5.42737 8.86846 5.82485 8.11261 6.5808C7.35666 7.33665 6.9602 8.37181 6.99452 9.41944C5.97375 9.6574 5.07656 10.3083 4.54203 11.2341C4.00749 12.1599 3.89239 13.2623 4.19673 14.2655C3.27237 14.7596 2.57413 15.6205 2.29746 16.6531C2.0208 17.6858 2.19503 18.7804 2.74846 19.6704C2.1694 20.2127 1.77049 20.9246 1.61045 21.7023H0.765957C0.342945 21.7023 0 22.0452 0 22.4683C0 28.8789 2.49641 34.9058 7.02945 39.4388C9.48388 41.8932 12.3767 43.7491 15.5309 44.9364H15.0638C14.6408 44.9364 14.2979 45.2792 14.2979 45.7023C14.2979 46.1254 14.6408 46.4683 15.0638 46.4683H32.9362C33.3592 46.4683 33.7021 46.1254 33.7021 45.7023C33.7021 45.2792 33.3592 44.9364 32.9362 44.9364H32.4691C35.6232 43.7491 38.5161 41.8932 40.9706 39.4388C45.5036 34.9056 48 28.8787 48 22.4681ZM4.21614 20.4765C4.42254 20.3575 4.56174 20.1493 4.59278 19.913C4.62383 19.6767 4.54325 19.4396 4.37474 19.2712C3.79435 18.6912 3.56538 17.8399 3.77719 17.0494C3.989 16.2589 4.613 15.6361 5.40572 15.4239C5.63581 15.3622 5.82424 15.1971 5.91534 14.9771C6.00654 14.757 5.98999 14.507 5.87081 14.3008C5.46026 13.5903 5.45944 12.7087 5.86866 12C6.27769 11.2914 7.04119 10.8515 7.86148 10.8515C8.10077 10.8515 8.32535 10.7408 8.47026 10.5518C8.61528 10.3628 8.6641 10.1171 8.60231 9.88698C8.38968 9.09437 8.61712 8.24252 9.19578 7.66386C9.77443 7.08521 10.6264 6.85787 11.4188 7.0704C11.6488 7.13198 11.8946 7.08306 12.0835 6.93825C12.2725 6.79322 12.3833 6.56854 12.3832 6.33028C12.383 5.50979 12.823 4.74577 13.5317 4.33665C14.2406 3.92752 15.122 3.92834 15.8325 4.33879C16.0388 4.45797 16.2887 4.47442 16.5089 4.38322C16.729 4.29202 16.8942 4.1038 16.9557 3.8736C17.1679 3.08099 17.7907 2.45699 18.5812 2.24507C19.3716 2.03346 20.223 2.26223 20.8032 2.84283C20.9715 3.01134 21.209 3.09181 21.445 3.06077C21.6812 3.02962 21.8894 2.89042 22.0085 2.68412C22.4186 1.97341 23.1815 1.53191 24 1.53191C24.8185 1.53191 25.5814 1.97341 25.9915 2.68412C26.1106 2.89052 26.3188 3.02972 26.555 3.06077C26.791 3.09181 27.0284 3.01134 27.1968 2.84283C27.777 2.26233 28.6283 2.03326 29.4187 2.24507C30.2092 2.45699 30.832 3.08109 31.0442 3.8736C31.1057 4.1038 31.2709 4.29212 31.491 4.38322C31.7111 4.47442 31.9612 4.45787 32.1674 4.33879C32.8779 3.92824 33.7594 3.92742 34.4682 4.33665C35.1768 4.74577 35.6169 5.50969 35.6167 6.33028C35.6166 6.56854 35.7274 6.79322 35.9164 6.93825C36.1053 7.08327 36.3511 7.13209 36.5811 7.0704C37.3737 6.85746 38.2255 7.08521 38.8042 7.66397C39.3829 8.24252 39.6103 9.09437 39.3977 9.88698C39.336 10.1171 39.3848 10.3628 39.5297 10.5518C39.6748 10.7408 39.8993 10.8515 40.1374 10.8515C40.9587 10.8515 41.7223 11.2915 42.1313 12C42.5406 12.7087 42.5397 13.5903 42.1292 14.3008C42.01 14.5071 41.9936 14.757 42.0847 14.9771C42.1759 15.1971 42.3642 15.3622 42.5943 15.4239C43.387 15.6361 44.011 16.2589 44.2228 17.0494C44.4346 17.8399 44.2057 18.6912 43.6253 19.2712C43.4567 19.4396 43.3762 19.6768 43.4072 19.913C43.4384 20.1492 43.5776 20.3575 43.7839 20.4765C44.2649 20.7541 44.6219 21.1935 44.8029 21.7021H3.197C3.37808 21.1935 3.73511 20.7541 4.21614 20.4765ZM46.4552 23.234C46.05 35.2698 36.1326 44.9362 24 44.9362C11.8674 44.9362 1.95003 35.2698 1.54478 23.234H46.4552Z" fill="#EF765E"/>
<path d="M12.4876 37.7106C12.9107 37.7106 13.2536 37.3677 13.2536 36.9447C13.2536 36.5216 12.9107 36.1787 12.4876 36.1787C12.0646 36.1787 11.7217 36.5216 11.7217 36.9447C11.7217 37.3677 12.0646 37.7106 12.4876 37.7106Z" fill="#EF765E"/>
<path d="M9.42379 34.6467C9.84682 34.6467 10.1898 34.3037 10.1898 33.8807C10.1898 33.4577 9.84682 33.1147 9.42379 33.1147C9.00077 33.1147 8.65784 33.4577 8.65784 33.8807C8.65784 34.3037 9.00077 34.6467 9.42379 34.6467Z" fill="#EF765E"/>
<path d="M13.7132 18.5871C14.1362 18.5871 14.4791 18.2442 14.4791 17.8211C14.4791 17.3981 14.1362 17.0552 13.7132 17.0552C13.2901 17.0552 12.9472 17.3981 12.9472 17.8211C12.9472 18.2442 13.2901 18.5871 13.7132 18.5871Z" fill="#EF765E"/>
<path d="M10.6493 15.5236C11.0723 15.5236 11.4153 15.1807 11.4153 14.7577C11.4153 14.3346 11.0723 13.9917 10.6493 13.9917C10.2263 13.9917 9.88336 14.3346 9.88336 14.7577C9.88336 15.1807 10.2263 15.5236 10.6493 15.5236Z" fill="#EF765E"/>
<path d="M34.1387 15.5236C34.5617 15.5236 34.9047 15.1807 34.9047 14.7577C34.9047 14.3346 34.5617 13.9917 34.1387 13.9917C33.7157 13.9917 33.3727 14.3346 33.3727 14.7577C33.3727 15.1807 33.7157 15.5236 34.1387 15.5236Z" fill="#EF765E"/>
<path d="M13.7132 12.4597C14.1362 12.4597 14.4791 12.1167 14.4791 11.6937C14.4791 11.2707 14.1362 10.9277 13.7132 10.9277C13.2901 10.9277 12.9472 11.2707 12.9472 11.6937C12.9472 12.1167 13.2901 12.4597 13.7132 12.4597Z" fill="#EF765E"/>
</svg>
