<svg width="49" height="48" viewBox="0 0 49 48" fill="none" xmlns="http://www.w3.org/2000/svg">
<path d="M38 18C34.694 17.9937 32.0089 20.6687 32.0026 23.9747C31.9978 26.5181 33.6009 28.787 36 29.632V33C36 39.0751 31.0751 44 25 44C18.9249 44 14 39.0751 14 33V23.82C19.7693 22.8448 23.9941 17.851 24 12V1.99997C24 0.895406 23.1046 0 22 0H16V4.00003H20.0001V12C20.0001 16.4183 16.4183 20 12.0001 20C7.58185 20 4.00003 16.4183 4.00003 12V4.00003H8.00006V0H2.00006C0.895406 0 0 0.895406 0 1.99997V12C0.00590625 17.851 4.23075 22.8448 10 23.82V33C10 41.2843 16.7157 48 25 48C33.2843 48 40 41.2843 40 33V29.632C43.1183 28.5338 44.7557 25.1155 43.6574 21.9974C42.8123 19.5983 40.5435 17.9952 38 18ZM38 26C36.8954 26 36 25.1046 36 24C36 22.8954 36.8954 22 38 22C39.1045 22 39.9999 22.8954 39.9999 24C39.9999 25.1046 39.1045 26 38 26Z" fill="#EF765E"/>
<path d="M29.9771 20.597C31.0691 20.763 32.089 20.0124 32.2551 18.9204C32.4212 17.8284 31.6705 16.8086 30.5786 16.6425C29.4866 16.4764 28.4667 17.227 28.3006 18.319C28.1345 19.411 28.8852 20.4309 29.9771 20.597Z" fill="#EF765E"/>
<path d="M34.6834 16.2552C35.7754 16.4212 36.7953 15.6706 36.9614 14.5786C37.1275 13.4866 36.3768 12.4668 35.2848 12.3007C34.1929 12.1346 33.173 12.8852 33.0069 13.9772C32.8408 15.0692 33.5914 16.0891 34.6834 16.2552Z" fill="#EF765E"/>
<path d="M41.9473 16.3093C43.039 16.1417 43.7882 15.1208 43.6206 14.029C43.453 12.9373 42.4321 12.1881 41.3403 12.3557C40.2486 12.5233 39.4994 13.5442 39.667 14.636C39.8346 15.7278 40.8555 16.4769 41.9473 16.3093Z" fill="#EF765E"/>
<path d="M38 25.9999C39.1045 25.9999 39.9999 25.1045 39.9999 24C39.9999 22.8954 39.1045 22 38 22C36.8954 22 36 22.8954 36 24C36 25.1045 36.8954 25.9999 38 25.9999Z" fill="#FECDC2"/>
<path d="M46.6597 20.6443C47.7514 20.4767 48.5006 19.4558 48.333 18.364C48.1654 17.2722 47.1445 16.5231 46.0527 16.6907C44.961 16.8583 44.2118 17.8792 44.3794 18.971C44.547 20.0627 45.5679 20.8119 46.6597 20.6443Z" fill="#EF765E"/>
</svg>
